{
    "status": "success",
    "msg": "",
    "data": {
        "seoOnPage": {
            "og_type": "website",
            "titleHead": "Phim hoạt hình | Phim hoạt hình hay tuyển chọn | Phim hoạt hình mới nhất 2024",
            "descriptionHead": "Phim hoạt hình mới nhất tuyển chọn chất lượng cao, Phim hoạt hình mới nhất 2024 vietsub cập nhật nhanh nhất. Phim hoạt hình vietsub nhanh nhất",
            "og_image": [
                "/upload/vod/20241102-1/e03d31bee2807351ff6af645e1447bc7.jpg",
                "/upload/vod/20241102-1/760174e813a5d4a744aa1f2bcbe730f0.jpg",
                "/upload/vod/20241102-1/30f4b8cd46e16ef46240b25233b0c69f.jpg",
                "/upload/vod/20240821-1/a651652396e9f53c09cd88d28700d5c4.jpg",
                "/upload/vod/20240819-1/93b19a206e073aaa523cf4371eb3347c.jpg",
                "/upload/vod/20240310-1/025424cf62248b9a7b54279ef5416e26.jpg",
                "/upload/vod/20240713-1/6c7557779fba2e7ac72e1b4223597e07.jpg",
                "/upload/vod/20241001-1/128866a1dfaf60119e170c5c9d5c7ef7.jpg",
                "/upload/vod/20241013-1/0fae7296f2e1a31e55deb61fe6db7a03.jpg",
                "/upload/vod/20241005-1/00e8698660b55f756067e5954c39d8d5.jpg"
            ],
            "og_url": "danh-sach/hoat-hinh"
        },
        "breadCrumb": [
            {
                "name": "Phim Hoạt Hình",
                "slug": "/danh-sach/hoat-hinh",
                "isCurrent": false,
                "position": 2
            },
            {
                "name": "Trang 1",
                "isCurrent": true,
                "position": 3
            }
        ],
        "titlePage": "Phim Hoạt Hình",
        "items": [
            {
                "modified": {
                    "time": "2024-11-02T15:41:32.000Z"
                },
                "_id": "d140b46b9030bd231b950b3e6cf02ee4",
                "name": "Haikyu!!: Trận Chiến Bãi Phế Liệu",
                "slug": "haikyu-tran-chien-bai-phe-lieu",
                "origin_name": "HAIKYU!! The Dumpster Battle",
                "type": "hoathinh",
                "poster_url": "upload/vod/20241102-1/e03d31bee2807351ff6af645e1447bc7.jpg",
                "thumb_url": "upload/vod/20241102-1/61f3894bee443c5281ec28b4914bc65a.jpg",
                "sub_docquyen": false,
                "chieurap": true,
                "time": "85 phút",
                "episode_current": "Full",
                "quality": "FHD",
                "lang": "Vietsub",
                "year": 2024,
                "category": [
                    {
                        "id": "37a7b38b6184a5ebd3c43015aa20709d",
                        "name": "Chính Kịch",
                        "slug": "chinh-kich"
                    }
                ],
                "country": [
                    {
                        "id": "d4097fbffa8f7149a61281437171eb83",
                        "name": "Nhật Bản",
                        "slug": "nhat-ban"
                    }
                ]
            }
        ],
        "params": {
            "type_slug": "danh-sach",
            "filterCategory": [
                ""
            ],
            "filterCountry": [
                ""
            ],
            "filterYear": "",
            "filterType": "",
            "sortField": "modified.time",
            "sortType": "desc",
            "pagination": {
                "totalItems": 1989,
                "totalItemsPerPage": 10,
                "currentPage": 1,
                "totalPages": 199
            }
        },
        "type_list": "hoat-hinh",
        "APP_DOMAIN_FRONTEND": "https://phimapi.com",
        "APP_DOMAIN_CDN_IMAGE": "https://phimimg.com"
    }
}